{
    "prepare_queue": {
        "installed": [],
        "uninstalled": []
    },
    "config_munge": {
        "files": {
            "res/xml/config.xml": {
                "parents": {
                    "/*": [
                        {
                            "xml": "<feature name=\"Keyboard\"><param name=\"android-package\" value=\"com.ionic.keyboard.IonicKeyboard\" /><param name=\"onload\" value=\"true\" /></feature>",
                            "count": 1
                        },
                        {
                            "xml": "<feature name=\"Device\"><param name=\"android-package\" value=\"org.apache.cordova.device.Device\" /></feature>",
                            "count": 1
                        },
                        {
                            "xml": "<feature name=\"PushPlugin\"><param name=\"android-package\" value=\"com.plugin.gcm.PushPlugin\" /></feature>",
                            "count": 1
                        },
                        {
                            "xml": "<feature name=\"InAppBrowser\"><param name=\"android-package\" value=\"org.apache.cordova.inappbrowser.InAppBrowser\" /></feature>",
                            "count": 1
                        },
                        {
                            "xml": "<feature name=\"Contacts\"><param name=\"android-package\" value=\"org.apache.cordova.contacts.ContactManager\" /></feature>",
                            "count": 1
                        },
                        {
                            "xml": "<feature name=\"InAppBillingPlugin\"><param name=\"android-package\" value=\"com.smartmobilesoftware.inappbilling.InAppBillingPlugin\" /></feature>",
                            "count": 1
                        }
                    ]
                }
            },
            "AndroidManifest.xml": {
                "parents": {
                    "/manifest": [
                        {
                            "xml": "<uses-permission android:name=\"android.permission.ACCESS_NETWORK_STATE\" />",
                            "count": 1
                        },
                        {
                            "xml": "<uses-permission android:name=\"android.permission.GET_ACCOUNTS\" />",
                            "count": 1
                        },
                        {
                            "xml": "<uses-permission android:name=\"android.permission.WAKE_LOCK\" />",
                            "count": 1
                        },
                        {
                            "xml": "<uses-permission android:name=\"android.permission.VIBRATE\" />",
                            "count": 1
                        },
                        {
                            "xml": "<uses-permission android:name=\"com.google.android.c2dm.permission.RECEIVE\" />",
                            "count": 1
                        },
                        {
                            "xml": "<permission android:name=\"com.ionicframework.drive693151.permission.C2D_MESSAGE\" android:protectionLevel=\"signature\" />",
                            "count": 1
                        },
                        {
                            "xml": "<uses-permission android:name=\"com.ionicframework.drive693151.permission.C2D_MESSAGE\" />",
                            "count": 1
                        },
                        {
                            "xml": "<uses-permission android:name=\"com.android.vending.BILLING\" />",
                            "count": 1
                        }
                    ],
                    "/manifest/application": [
                        {
                            "xml": "<activity android:exported=\"true\" android:name=\"com.plugin.gcm.PushHandlerActivity\" />",
                            "count": 1
                        },
                        {
                            "xml": "<receiver android:name=\"com.plugin.gcm.CordovaGCMBroadcastReceiver\" android:permission=\"com.google.android.c2dm.permission.SEND\"><intent-filter><action android:name=\"com.google.android.c2dm.intent.RECEIVE\" /><action android:name=\"com.google.android.c2dm.intent.REGISTRATION\" /><category android:name=\"com.ionicframework.drive693151\" /></intent-filter></receiver>",
                            "count": 1
                        },
                        {
                            "xml": "<service android:name=\"com.plugin.gcm.GCMIntentService\" />",
                            "count": 1
                        }
                    ],
                    "/*": [
                        {
                            "xml": "<uses-permission android:name=\"android.permission.READ_CONTACTS\" />",
                            "count": 1
                        },
                        {
                            "xml": "<uses-permission android:name=\"android.permission.WRITE_CONTACTS\" />",
                            "count": 1
                        },
                        {
                            "xml": "<uses-permission android:name=\"android.permission.GET_ACCOUNTS\" />",
                            "count": 1
                        }
                    ]
                }
            },
            "res/values/billing_key_param.xml": {
                "parents": {
                    "/*": [
                        {
                            "xml": "<string name=\"billing_key_param\">MIIBIjANBgkqhkiG9w0BAQEFAAOCAQ8AMIIBCgKCAQEAoNblwpHmI19U2pIazlz0hazH0Q0EmDHusXcDiR9A9oUYYexnkHqWMPkMOIALdqNpUjG09hnzB2OP4WGjciuaBqep/8H3KmMbalN73brnIpbbNThmjXJ36nWQhUU5IJHwSy/EZAaI/QKEllOrJp3a5e6tDTfSew5MtN/PPuvfg4QCb0SjbrV9or5htlsmf8je4w8QZbT/11OZXtw/Qt2hsX2egIK7+LnOMtg4FKxstHhSFA0LgaTSKPtdnu1C6SQfKYxitd7SRYEzWaq9wXXwUoM5xFCqmbrIdxmfhOOHnI/kfTAD1a7iIZEXN0dW6INziN+DUJQQYQjCrDaBpFmYEwIDAQAB</string>",
                            "count": 1
                        }
                    ]
                }
            }
        }
    },
    "installed_plugins": {
        "com.ionic.keyboard": {
            "PACKAGE_NAME": "com.ionicframework.drive693151"
        },
        "org.apache.cordova.device": {
            "PACKAGE_NAME": "com.ionicframework.drive693151"
        },
        "com.phonegap.plugins.PushPlugin": {
            "PACKAGE_NAME": "com.ionicframework.drive693151"
        },
        "org.apache.cordova.inappbrowser": {
            "PACKAGE_NAME": "com.ionicframework.drive693151"
        },
        "org.apache.cordova.contacts": {
            "PACKAGE_NAME": "com.ionicframework.drive693151"
        },
        "com.smartmobilesoftware.androidinappbilling": {
            "BILLING_KEY": "MIIBIjANBgkqhkiG9w0BAQEFAAOCAQ8AMIIBCgKCAQEAoNblwpHmI19U2pIazlz0hazH0Q0EmDHusXcDiR9A9oUYYexnkHqWMPkMOIALdqNpUjG09hnzB2OP4WGjciuaBqep/8H3KmMbalN73brnIpbbNThmjXJ36nWQhUU5IJHwSy/EZAaI/QKEllOrJp3a5e6tDTfSew5MtN/PPuvfg4QCb0SjbrV9or5htlsmf8je4w8QZbT/11OZXtw/Qt2hsX2egIK7+LnOMtg4FKxstHhSFA0LgaTSKPtdnu1C6SQfKYxitd7SRYEzWaq9wXXwUoM5xFCqmbrIdxmfhOOHnI/kfTAD1a7iIZEXN0dW6INziN+DUJQQYQjCrDaBpFmYEwIDAQAB",
            "PACKAGE_NAME": "com.ionicframework.drive693151"
        }
    },
    "dependent_plugins": {}
}